<?xml version="1.0" encoding="UTF-8"?>
<model modelUID="r:2fe34fb7-2559-453e-88ea-dc6d0fc00404(stdioImporter.typesystem)">
  <persistence version="8" />
  <language namespace="7a5dda62-9140-4668-ab76-d5ed1746f2b2(jetbrains.mps.lang.typesystem)" />
  <devkit namespace="fbc25dd2-5da4-483a-8b19-70928e1b62d7(jetbrains.mps.devkit.general-purpose)" />
</model>

